{
  "name": "",
  "css_prefix_text": "icon-",
  "css_use_suffix": false,
  "hinting": true,
  "units_per_em": 1000,
  "ascent": 850,
  "glyphs": [
    {
      "uid": "0ece9a12de796b8411f868d582bee678",
      "css": "github-squared",
      "code": 62208,
      "src": "fontawesome"
    },
    {
      "uid": "cba6018f5de17c76f70b7d2c06037e5a",
      "css": "mail",
      "code": 59392,
      "src": "websymbols"
    },
    {
      "uid": "9f7e588c66cfd6891f6f507cf6f6596b",
      "css": "phone",
      "code": 59393,
      "src": "fontawesome"
    }
  ]
}